Curso Capacitación en R
…
# Más herramientas de análisis

Otra herramienta relevante para analizar información es la capacidad de     
**agrupamiento.** Esto se puede realizar mediante la función `group_by()`.

``` r
df_starwars |> 
  relocate(species) |>
  group_by(species) 
```

```
## # A tibble: 87 × 14
## # Groups:   species [38]
##    species name    height  mass hair_color skin_color eye_color birth_year sex  
##    <chr>   <chr>    <int> <dbl> <chr>      <chr>      <chr>          <dbl> <chr>
##  1 Human   Luke S…    172    77 blond      fair       blue            19   male 
##  2 Droid   C-3PO      167    75 <NA>       gold       yellow         112   none 
##  3 Droid   R2-D2       96    32 <NA>       white, bl… red             33   none 
##  4 Human   Darth …    202   136 none       white      yellow          41.9 male 
##  5 Human   Leia O…    150    49 brown      light      brown           19   fema…
##  6 Human   Owen L…    178   120 brown, gr… light      blue            52   male 
##  7 Human   Beru W…    165    75 brown      light      blue            47   fema…
##  8 Droid   R5-D4       97    32 <NA>       white, red red             NA   none 
##  9 Human   Biggs …    183    84 black      light      brown           24   male 
## 10 Human   Obi-Wa…    182    77 auburn, w… fair       blue-gray       57   male 
## # ℹ 77 more rows
## # ℹ 5 more variables: gender <chr>, homeworld <chr>, films <list>,
## #   vehicles <list>, starships <list>
```
…
# Más herramientas de análisis

``` r
df_starwars |> 
  group_by(species) |>
  summarise(
    cantidad_por_especie = n(),
    max_altura = max(height),
    min_masa = min(mass),
    alguno_proveniente_de_tatooine = any(homeworld == "Tatooine")
  )
```

```
## # A tibble: 38 × 5
##    species   cantidad_por_especie max_altura min_masa alguno_proveniente_de_ta…¹
##    <chr>                    <int>      <int>    <dbl> <lgl>                     
##  1 Aleena                       1         79       15 FALSE                     
##  2 Besalisk                     1        198      102 FALSE                     
##  3 Cerean                       1        198       82 FALSE                     
##  4 Chagrian                     1        196       NA FALSE                     
##  5 Clawdite                     1        168       55 FALSE                     
##  6 Droid                        6         NA       NA TRUE                      
##  7 Dug                          1        112       40 FALSE                     
##  8 Ewok                         1         88       20 FALSE                     
##  9 Geonosian                    1        183       80 FALSE                     
## 10 Gungan                       3        224       NA FALSE                     
## # ℹ 28 more rows
## # ℹ abbreviated name: ¹​alguno_proveniente_de_tatooine
```
…
