Curso Capacitación en R
…
background-image: url("imagenes/background.PNG")
background-size: contain;
background-position: 50% 0%

# Ejercicio 2 (funciones e iteraciones)

Recuerde que la base `guerra_galaxias` debiese verse de la siguiente forma:

``` r
guerra_galaxias
```

```
## # A tibble: 87 × 14
##    name     height  mass hair_color skin_color eye_color birth_year sex   gender
##    <chr>     <int> <dbl> <chr>      <chr>      <chr>          <dbl> <chr> <chr> 
##  1 Luke Sk…    172    77 blond      fair       blue            19   male  mascu…
##  2 C-3PO       167    75 <NA>       gold       yellow         112   none  mascu…
##  3 R2-D2        96    32 <NA>       white, bl… red             33   none  mascu…
##  4 Darth V…    202   136 none       white      yellow          41.9 male  mascu…
##  5 Leia Or…    150    49 brown      light      brown           19   fema… femin…
##  6 Owen La…    178   120 brown, gr… light      blue            52   male  mascu…
##  7 Beru Wh…    165    75 brown      light      blue            47   fema… femin…
##  8 R5-D4        97    32 <NA>       white, red red             NA   none  mascu…
##  9 Biggs D…    183    84 black      light      brown           24   male  mascu…
## 10 Obi-Wan…    182    77 auburn, w… fair       blue-gray       57   male  mascu…
## # ℹ 77 more rows
## # ℹ 5 more variables: homeworld <chr>, species <chr>, films <list>,
## #   vehicles <list>, starships <list>
```
…
# Ejercicio 2 (funciones e iteraciones)

1.- Genere una función que reciba una base de datos, que tome por defecto las columnas que son `character` y
que transforme todas las columnas de este tipo a mayúsculas. Llame a esta función `columnas_character_mayusculas`.
Utilice la función en la misma base `guerra_galaxias` (sobrescribiendola) y así tener la base con mayúsculas.

Su resultado debiese verse de la siguiente forma:

``` r
guerra_galaxias <- columnas_character_mayusculas(guerra_galaxias)
guerra_galaxias
```

```
## # A tibble: 87 × 14
##    name     height  mass hair_color skin_color eye_color birth_year sex   gender
##    <chr>     <int> <dbl> <chr>      <chr>      <chr>          <dbl> <chr> <chr> 
##  1 LUKE SK…    172    77 BLOND      FAIR       BLUE            19   MALE  MASCU…
##  2 C-3PO       167    75 <NA>       GOLD       YELLOW         112   NONE  MASCU…
##  3 R2-D2        96    32 <NA>       WHITE, BL… RED             33   NONE  MASCU…
##  4 DARTH V…    202   136 NONE       WHITE      YELLOW          41.9 MALE  MASCU…
##  5 LEIA OR…    150    49 BROWN      LIGHT      BROWN           19   FEMA… FEMIN…
##  6 OWEN LA…    178   120 BROWN, GR… LIGHT      BLUE            52   MALE  MASCU…
##  7 BERU WH…    165    75 BROWN      LIGHT      BLUE            47   FEMA… FEMIN…
##  8 R5-D4        97    32 <NA>       WHITE, RED RED             NA   NONE  MASCU…
##  9 BIGGS D…    183    84 BLACK      LIGHT      BROWN           24   MALE  MASCU…
## 10 OBI-WAN…    182    77 AUBURN, W… FAIR       BLUE-GRAY       57   MALE  MASCU…
## # ℹ 77 more rows
## # ℹ 5 more variables: homeworld <chr>, species <chr>, films <list>,
## #   vehicles <list>, starships <list>
```
…
