Curso Capacitación en R
…
1.- Haga las siguientes operaciones en el objeto que contiene la base de `starwars`:
**seleccione** solamente las columnas llamadas `name`, `height`, `mass`, `gender`,
`homeworld` y `species`; luego **filtre** la base para que sólo contemple aquellas
especies (`species`) que son humanas; finalmente **ordene** la base según la columna `height` de mayor a menor.

``` r
nombre_que_usted_prefiera |>
  select(name, height, mass, gender, homeworld, species) |>
  filter(species == "Human") |>
  arrange(desc(height))
```

```
## # A tibble: 35 × 6
##    name                height  mass gender    homeworld  species
##    <chr>                <int> <dbl> <chr>     <chr>      <chr>  
##  1 Darth Vader            202 136   masculine Tatooine   Human  
##  2 Qui-Gon Jinn           193  89   masculine <NA>       Human  
##  3 Dooku                  193  80   masculine Serenno    Human  
##  4 Bail Prestor Organa    191  NA   masculine Alderaan   Human  
##  5 Anakin Skywalker       188  84   masculine Tatooine   Human  
##  6 Mace Windu             188  84   masculine Haruun Kal Human  
##  7 Raymus Antilles        188  79   masculine Alderaan   Human  
##  8 Padmé Amidala          185  45   feminine  Naboo      Human  
##  9 Biggs Darklighter      183  84   masculine Tatooine   Human  
## 10 Boba Fett              183  78.2 masculine Kamino     Human  
## # ℹ 25 more rows
```
…
``` r
otro_nombre_que_usted_prefiera |>
  select(-category, -tropicalstorm_force_diameter) |>
  filter(year == 1993) |>
  mutate(wind_corregida = wind*100) |>
  arrange(pressure)
```

```
## # A tibble: 224 × 12
##    name   year month   day  hour   lat  long status         wind pressure
##    <chr> <dbl> <dbl> <int> <dbl> <dbl> <dbl> <fct>         <int>    <int>
##  1 Emily  1993     9     1     0  35.6 -74.9 hurricane       100      960
##  2 Emily  1993     8    31    21  35.2 -75.1 hurricane       100      961
##  3 Emily  1993     8    31    18  34.5 -75.2 hurricane       100      962
##  4 Emily  1993     9     1     6  36.6 -74.4 hurricane       100      962
##  5 Emily  1993     8    31    12  33.6 -74.7 hurricane        95      965
##  6 Emily  1993     9     1    12  37.5 -72.7 hurricane        95      965
##  7 Floyd  1993     9    12    18  48    -6   extratropical    70      966
##  8 Floyd  1993     9    13     0  48    -5   extratropical    70      966
##  9 Emily  1993     9     1    18  38.2 -70.7 hurricane        90      969
## 10 Emily  1993     8    31     6  32.9 -73.8 hurricane        85      970
## # ℹ 214 more rows
## # ℹ 2 more variables: hurricane_force_diameter <int>, wind_corregida <dbl>
```
