Curso Capacitación en R
…
background-image: url("imagenes/background.PNG")
background-size: contain;
background-position: 50% 0%

# Ejercicio 2 (iteraciones)

Recuerde que la base `diamantes` debiese verse de la siguiente forma:

``` r
diamantes
```

```
## # A tibble: 53,940 × 10
##    carat cut       color clarity depth table price     x     y     z
##    <dbl> <ord>     <ord> <ord>   <dbl> <dbl> <int> <dbl> <dbl> <dbl>
##  1  0.23 Ideal     E     SI2      61.5    55   326  3.95  3.98  2.43
##  2  0.21 Premium   E     SI1      59.8    61   326  3.89  3.84  2.31
##  3  0.23 Good      E     VS1      56.9    65   327  4.05  4.07  2.31
##  4  0.29 Premium   I     VS2      62.4    58   334  4.2   4.23  2.63
##  5  0.31 Good      J     SI2      63.3    58   335  4.34  4.35  2.75
##  6  0.24 Very Good J     VVS2     62.8    57   336  3.94  3.96  2.48
##  7  0.24 Very Good I     VVS1     62.3    57   336  3.95  3.98  2.47
##  8  0.26 Very Good H     SI1      61.9    55   337  4.07  4.11  2.53
##  9  0.22 Fair      E     VS2      65.1    61   337  3.87  3.78  2.49
## 10  0.23 Very Good H     VS1      59.4    61   338  4     4.05  2.39
## # ℹ 53,930 more rows
```
…
background-image: url("imagenes/background.PNG")
background-size: contain;
background-position: 50% 0%

# Ejercicio 2 (iteraciones)

1.- Utilizando la base `diamantes`, los verbos de `dplyr`, la función `across` y la función 
`round`, aplique la función `round` a todas las columnas que son *numéricas*.
Llame a esta base `diamantes_sin_decimales`.

La base `diamantes_sin_decimales` debiese verse de la siguiente forma:

```
## # A tibble: 53,940 × 10
##    carat cut       color clarity depth table price     x     y     z
##    <dbl> <ord>     <ord> <ord>   <dbl> <dbl> <dbl> <dbl> <dbl> <dbl>
##  1     0 Ideal     E     SI2        62    55   326     4     4     2
##  2     0 Premium   E     SI1        60    61   326     4     4     2
##  3     0 Good      E     VS1        57    65   327     4     4     2
##  4     0 Premium   I     VS2        62    58   334     4     4     3
##  5     0 Good      J     SI2        63    58   335     4     4     3
##  6     0 Very Good J     VVS2       63    57   336     4     4     2
##  7     0 Very Good I     VVS1       62    57   336     4     4     2
##  8     0 Very Good H     SI1        62    55   337     4     4     3
##  9     0 Fair      E     VS2        65    61   337     4     4     2
## 10     0 Very Good H     VS1        59    61   338     4     4     2
## # ℹ 53,930 more rows
```
…
background-image: url("imagenes/background.PNG")
background-size: contain;
background-position: 50% 0%

# Ejercicio 2 (iteraciones)

3.- Utilizando nuevamente como punto de inicio la base `diamantes`, los verbos de `dplyr`, 
la función `across` y la función `round`, aplique la función `round` a todas las
columnas que son *numéricas* pero ahora **especifique que esta función se implemente considerando sólo 1 decimal**.
Llame a esta base `diamantes_un_decimal`.

Ahora la base `diamantes_un_decimal` debiese verse de la siguiente forma:

```
## # A tibble: 53,940 × 10
##    carat cut       color clarity depth table price     x     y     z
##    <dbl> <ord>     <ord> <ord>   <dbl> <dbl> <dbl> <dbl> <dbl> <dbl>
##  1   0.2 Ideal     E     SI2      61.5    55   326   4     4     2.4
##  2   0.2 Premium   E     SI1      59.8    61   326   3.9   3.8   2.3
##  3   0.2 Good      E     VS1      56.9    65   327   4     4.1   2.3
##  4   0.3 Premium   I     VS2      62.4    58   334   4.2   4.2   2.6
##  5   0.3 Good      J     SI2      63.3    58   335   4.3   4.3   2.8
##  6   0.2 Very Good J     VVS2     62.8    57   336   3.9   4     2.5
##  7   0.2 Very Good I     VVS1     62.3    57   336   4     4     2.5
##  8   0.3 Very Good H     SI1      61.9    55   337   4.1   4.1   2.5
##  9   0.2 Fair      E     VS2      65.1    61   337   3.9   3.8   2.5
## 10   0.2 Very Good H     VS1      59.4    61   338   4     4     2.4
## # ℹ 53,930 more rows
```
…
